MAGENTA-BD45B4
ORAGE-F17613
PINK-EE8DAC
PURPLE-7A2AAC
RED-A12723
SILVER-8E8E87
WHITE-EAECED
YELLOW-F9C627
BLACK-15151A
BLUE-35399D
BROWN-724829
CYAN-158A91
GRAY-3F4448
GREEN-556D1B
LIGHTBLUE-3AAFD9
LIME-70B91A