{
  "namespace": "horse",

  "renderer_bg": {
    "texture": "textures/ui/player_preview_border"
  }
}

// Edited by Offroaders123 for the Faithful 32x resource pack for Minecraft Bedrock Edition.
