{
  "namespace": "auto_save_info",

  "auto_save_animation": {
    "frame_count": 19,
    "frame_step": 36,
    "fps": 19
  },

  "auto_save": {
    "size": [ 18, 42 ],
    "uv_size": [ 36, 60 ]
  }
}

// Edited by Offroaders123 for the Faithful 32x resource pack for Minecraft Bedrock Edition.
